{
    "webmaster": {
        "url": "mailto:webmaster@konstantintutsch.com",
        "value": "webmaster@konstantintutsch.com"
    },
    "github": {
        "url": "https://github.com/konstantintutsch"
    },
    "500.social": {
        "url": "https://500.social/@konstantin",
        "value": "@konstantin@500.social"
    },
    "fediverse": {
        "url": "https://fosstodon.org/@konstantin",
        "value": "@konstantin@fosstodon.org"
    },
    "matrix": {
        "url": "https://matrix.to/#/@konstantin:konstantintutsch.com",
        "value": "@konstantin:konstantintutsch.com"
    },
    "liberapay": {
        "url": "https://liberapay.com/konstantintutsch"
    },
    "osm": {
        "url": "https://www.openstreetmap.org/user/konstantintutsch"
    },
    "codeberg": {
        "url": "https://codeberg.org/konstantintutsch"
    }
}
